{
  "id": "2985519",
  "name": "uni",
  "font_family": "iconfont",
  "css_prefix_text": "icon-",
  "description": "",
  "glyphs": [
    {
      "icon_id": "201583",
      "name": "3.1回到顶部",
      "font_class": "31huidaodingbu",
      "unicode": "e600",
      "unicode_decimal": 58880
    },
    {
      "icon_id": "1929155",
      "name": "设置",
      "font_class": "shezhi",
      "unicode": "e622",
      "unicode_decimal": 58914
    },
    {
      "icon_id": "5387806",
      "name": "播放_o",
      "font_class": "bofang_o",
      "unicode": "eb5e",
      "unicode_decimal": 60254
    },
    {
      "icon_id": "5972278",
      "name": "喇叭",
      "font_class": "laba",
      "unicode": "e603",
      "unicode_decimal": 58883
    },
    {
      "icon_id": "7127386",
      "name": "搜索",
      "font_class": "sousuo",
      "unicode": "e608",
      "unicode_decimal": 58888
    },
    {
      "icon_id": "7450650",
      "name": "右箭头",
      "font_class": "youjiantou",
      "unicode": "e667",
      "unicode_decimal": 58983
    },
    {
      "icon_id": "7712204",
      "name": "教师",
      "font_class": "jiaoshi",
      "unicode": "e722",
      "unicode_decimal": 59170
    },
    {
      "icon_id": "15810080",
      "name": "钱袋",
      "font_class": "qiandai",
      "unicode": "e770",
      "unicode_decimal": 59248
    },
    {
      "icon_id": "22737249",
      "name": "锁",
      "font_class": "a-tupianyihuifu-54",
      "unicode": "e60f",
      "unicode_decimal": 58895
    },
    {
      "icon_id": "24111608",
      "name": "勋章",
      "font_class": "xunzhang",
      "unicode": "fb00",
      "unicode_decimal": 64256
    }
  ]
}
